/* XPM */
static char * frameATL_xpm[] = {
"5 5 22 1",
" 	c None",
".	c #333333",
"+	c #303030",
"@	c #323234",
"#	c #F1F1F3",
"$	c #F3F3F5",
"%	c #F7F7F9",
"&	c #F4F4F6",
"*	c #F2F2F2",
"=	c #DADADC",
"-	c #D6D6D8",
";	c #D9D9DB",
">	c #353535",
",	c #F6F6F6",
"'	c #D3D3D3",
")	c #AFAFB1",
"!	c #AEAEAE",
"~	c #343434",
"{	c #F3F3F3",
"]	c #DADAD8",
"^	c #ACACAA",
"/	c #333331",
".+...",
"@#$%&",
"@*=-;",
">,')!",
"~{]^/"};
