/* XPM */
static char * titleAT_xpm[] = {
"1 16 17 1",
" 	c None",
".	c #98ABD6",
"+	c #6381C6",
"@	c #5F7FC2",
"#	c #5C7CBE",
"$	c #587ABA",
"%	c #5577B6",
"&	c #5274B3",
"*	c #4E72AF",
"=	c #4B6FAB",
"-	c #476DA7",
";	c #446AA4",
">	c #4167A0",
",	c #3D659C",
"'	c #3A6298",
")	c #375F95",
"!	c #2F4670",
".",
"+",
"@",
"#",
"$",
"%",
"&",
"*",
"=",
"-",
";",
">",
",",
"'",
")",
"!"};
